{
    "key": "github-for-hipchat",
    "name": "GitHub",
    "description": "Bring GitHub into your HipChat rooms and get notified about your team's commits, pull requests, issues, comments, and more.",
    "vendor": {
        "name": "HipChat",
        "url": "https://www.hipchat.com"
    },
    "links": {
        "self": "{{localBaseUrl}}/atlassian-connect.json",
        "homepage": "https://bitbucket.org/hipchat/hipchat-github-addon"
    },
    "capabilities": {
        "hipchatApiConsumer": {
            "scopes": [
                "send_notification"
            ],
            "avatar": {
                "url": "{{localBaseUrl}}/images/Octocat.png",
                "url@2x": "{{localBaseUrl}}/images/Octocat.png"
            }
        },
        "installable": {
            "callbackUrl": "{{localBaseUrl}}/installable",
            "allowRoom": true,
            "allowGlobal": false
        },
        "configurable": {
             "url": "{{localBaseUrl}}/config"
        }
    }
}